<svg xmlns="http://www.w3.org/2000/svg" xmlns:xlink="http://www.w3.org/1999/xlink" width="200" height="140" viewBox="0 0 200 140">
  <defs>
    <clipPath id="clip-date_n_weather">
      <rect width="200" height="140"/>
    </clipPath>
  </defs>
  <g id="date_n_weather" clip-path="url(#clip-date_n_weather)">
    <rect width="200" height="140" fill="#fff"/>
    <text id="_2_C" data-name="2°C" transform="translate(110.867 132.95)" font-size="50" font-family="SoleilLt, Soleil" opacity="0.8"><tspan x="0" y="0">2°C</tspan></text>
    <g id="Group_2" data-name="Group 2" transform="translate(-1220.02 -92)" opacity="0.8">
      <text id="NOV_16" data-name="NOV 16" transform="translate(1220.346 167.637)" font-size="50" font-family="SoleilLt, Soleil"><tspan x="0" y="0">NOV 16</tspan></text>
      <text id="th" transform="translate(1385.494 150.987)" font-size="29" font-family="SoleilLt, Soleil"><tspan x="0" y="0">th</tspan></text>
    </g>
    <path id="Path_14" data-name="Path 14" d="M1298.06,189.78h-2.43a18.752,18.752,0,0,0-17.85,13.04h-5.33a12.22,12.22,0,0,0,0,24.44h27.79a12.18,12.18,0,0,0,8.07-3.06,18.711,18.711,0,0,0,8.49-15.68h0A18.74,18.74,0,0,0,1298.06,189.78Z" transform="translate(-1220.02 -92)" opacity="0.4"/>
  </g>
</svg>
