<svg xmlns="http://www.w3.org/2000/svg" xmlns:xlink="http://www.w3.org/1999/xlink" width="1920" height="170" viewBox="0 0 1920 170">
  <defs>
    <clipPath id="clip-Web_1920_2">
      <rect width="1920" height="170"/>
    </clipPath>
  </defs>
  <g id="Web_1920_2" data-name="Web 1920 – 2" clip-path="url(#clip-Web_1920_2)">
    <rect width="1920" height="170" fill="#fff"/>
    <text id="_2_C" data-name="2°C" transform="translate(1274.867 132.95)" font-size="50" font-family="SoleilLt, Soleil" opacity="0.8"><tspan x="0" y="0">2°C</tspan></text>
    <g id="Group_2" data-name="Group 2" transform="translate(-56.02 -92)" opacity="0.8">
      <text id="NOV_16" data-name="NOV 16" transform="translate(1220.346 167.637)" font-size="50" font-family="SoleilLt, Soleil"><tspan x="0" y="0">NOV 16</tspan></text>
      <text id="th" transform="translate(1385.494 150.987)" font-size="29" font-family="SoleilLt, Soleil"><tspan x="0" y="0">th</tspan></text>
    </g>
    <text id="_2min_M1_Matinkylä" data-name="2min M1 Matinkylä" transform="translate(56.536 116.652)" font-size="24" font-family="Soleil-Bold, Soleil" opacity="0.8" font-weight="700"><tspan x="0" y="0">2min</tspan><tspan y="0" xml:space="preserve" font-size="30" font-family="Soleil" font-weight="400"> M1 Matinkylä</tspan></text>
    <text id="_5min_M2_Mellunmäki" data-name="5min M2 Mellunmäki" transform="translate(99.416 64.88)" font-size="24" font-family="Soleil-Bold, Soleil" opacity="0.8" font-weight="700"><tspan x="0" y="0">5min</tspan><tspan y="0" xml:space="preserve" font-size="30" font-family="Soleil" font-weight="400"> M2 Mellunmäki</tspan></text>
    <path id="Path_14" data-name="Path 14" d="M1298.06,189.78h-2.43a18.752,18.752,0,0,0-17.85,13.04h-5.33a12.22,12.22,0,0,0,0,24.44h27.79a12.18,12.18,0,0,0,8.07-3.06,18.711,18.711,0,0,0,8.49-15.68h0A18.74,18.74,0,0,0,1298.06,189.78Z" transform="translate(-56.02 -92)" opacity="0.4"/>
    <line id="Line_1" data-name="Line 1" y1="117.18" transform="translate(30 -0.84)" fill="none" stroke="#e20000" stroke-miterlimit="10" stroke-width="7"/>
    <circle id="Ellipse_1" data-name="Ellipse 1" cx="14.53" cy="14.53" r="14.53" transform="translate(15.47 91.43)" fill="#fff" stroke="#e20000" stroke-miterlimit="10" stroke-width="7"/>
    <line id="Line_2" data-name="Line 2" y1="56.43" transform="translate(72.88 -0.84)" fill="none" stroke="#e20000" stroke-miterlimit="10" stroke-width="7"/>
    <circle id="Ellipse_2" data-name="Ellipse 2" cx="14.53" cy="14.53" r="14.53" transform="translate(58.35 39.66)" fill="#fff" stroke="#e20000" stroke-miterlimit="10" stroke-width="7"/>
    <rect id="Rectangle_59" data-name="Rectangle 59" width="640" height="110" transform="translate(497.23 29.16)" fill="#fff"/>
  </g>
</svg>
